﻿{
  "$schema": "http://json.schemastore.org/launchsettings.json",
  "profiles": {
    "console": {
      "commandName": "Project",
      "dotnetRunMessages": true,
      "launchBrowser": false,
      "environmentVariables": {
        "ASPNETCORE_ENVIRONMENT": "Development",
        "Api__SwaggerEnabled": "true",
        "Logs__Level": "Trace",
        "Instrumentation__CollectorEndpoint": "http://otel-collector.dev.internal:4317"
      }
    }
  }
}
